<z>-900</z> <x>148</x> <y>140</y> <n>Inviso Level - Access only by portal with skull gem</n>
DDDD/\DDDDDD/\DDDDDDDDDD/\DDDDDD/\DDDD
DD. . . . . . . . . . . . . []. . . DD
/\. [][]/\[][]. /\[]/\[][][]/\. []. /\
DD. []. []. . . []. . . . . . . []. DD
DD. /\. []. [][][]. [][]/\[][][]/\. DD
DD. . . []. . . []. []. . . []. . . DD
/\[][][]/\[][]. []. []. []. /\. []. DD
DD. []. . . . . []. []. []. []. []. DD
DD. /\. []. MM. []. []. /\[][]. /\. DD
DD. . . []. . . []. []. . . []. []. DD
/\[][][]/\. []. /\. /\[][]. /\. [][]/\
DD. . . . . []. []. . . . . []. . . DD
DD. /\[][]. /\. []. [][]/\. []. /\[]DD
DD. []. []. []. []. . . []. []. . . DD
/\. []. /\. []. /\[]/\. []. /\[][]. /\
DD. . . []. []. . . . . []. . . SD. DD
DD[]/\[][]. /\[][][][]. /\[][][]/\. DD
DD. . . . . . . . . []. []. []. [][]DD
/\. [][]/\[][][]/\. /\. []. /\. []. DD
DD. . . . . . . []. []. []. []. []. DD
DD[]/\[][][]/\[][]. []. /\. [][]/\. DD
DD. . . . . . . []. []. []. []. . . DD
/\. []. /\[][]. /\. /\. []. /\. [][]DD
DD. []. []. . . . . []. . . SD. . . DD
DDDD/\DDDDDD/\DDDDDDDDDD/\DDDDDD/\DDDD
<z>0</z> <x>100</x> <y>100</y> <n>Rift Town and Portal Entry - Elevation 0'</n>
        /\/\/\/\                                                                            
/\/\/\/\/\~~~~/\/\/\                                                                        
WWWWWW~~~~~~~~~~~~/\          /\/\/\/\/\                                                    
WWWWWW~~~~~~~~~~~~/\/\/\/\/\/\/\. . . /\                                                    
WWWWWW~~~~~~~~~~~~::SD. . . . SD. . . /\                                                    
WWWWWW~~~~~~~~~~~~::/\/\/\/\/\/\/\MM/\/\                                                    
WWWWWW~~~~~~~~~~~~::/\/\/\/\/\/\/\**/\    /\/\/\/\/\/\/\/\/\/\/\                            
WWWWWW~~~~~~~~~~~~::::/\. . . . /\/\/\/\/\/\~.~.~./\/\/\c3~.~./\/\                          
WWWWWW~~~~~~~~~~~~~~::/\. . /\/\/\/\~.~.~.~.~.~.~.~.~.~.~.~~~~~./\/\/\                      
WWWWWW~~~~~~~~~~~~~~::::/\/\/\::::~.~.~~~~~~~~~~~.~.~.~~~~~~~~~~~.~./\/\/\/\                
WWWWWW~~~~~~~~~~~~~~~~::::::::::~.~.~.~.~.~~~~~~~~~~~~~.~.~~~~~~~~~~~.~.~./\/\/\            
WWWWWW~~~~~~~~~~~~~~~~~~~~~.~.~.~.~.~~~~~~~~~~~~~~~~~~~~~~~~~~~~~~~~~~~~~.::::/\/\          
WWWWWW~~~~~~~~~~~~~~~~~~~~~~~~~~~~~.~.~~~~~~~~~~~~~~~~~~~~~~~~~~~~~~~~~.~.~.~.::/\/\        
WWWWWW~~~~~~~~~~~~~~~~~~~~~~~~~~~~~~~~~~~~~~~~~~~~~~~~~~~~~~~~~~~~~~~.~.~.~.::::/\/\        
WWWWWW~~~~~~~~~.~.~.~~~~~~~~~~~~~~~~~~~~~~~~~~~~~~~~~~~~~~~~~~~~~~~~~.::::::/\/\/\/\/\/\/\/\
WWWWWW~~~~~~~~~~~.~.~.~.~~~~~~~~~~~~~~~~~~~~~~~.~./\/\/\~~~~~~~~~~~~~.::/\/\/\::/\/\[][][]/\
WWWWWW~~~~~~~.~.~.~.~.~.~.~.~~~~~~~~~~~~~~~~~~c3/\/\/\/\/\~~~~~~~~~.~.::/\~.~.::/\/\[]. []/\
WWWWWW~~~~~~~~~~~.~.~.~~~~~~~~~~~~~~~~~~~~~~/\/\~./\/\~.~./\~~~~~.~.::::/\~.::::/\/\DDCCDD/\
WWWWWW~~~~~~~~~~~~~~~~~~~~~~~~~~~~~~~~~~~~~~/\/\~./\~.~~~~/\~~~~~.::/\/\::::/\/\/\/\[]. []/\
WWWWWW~~~~~~~~~~~~~~~~~~~~~~~~~~~~~~~~~~~~~~~~/\~./\~~~~~~~~~~~.~.::/\/\/\/\/\/\/\up[]--[]/\
WWWWWW~~~~~~~~~~~~~~~~~~~~~~/\/\/\~~~~~~~~~~~~~~/\/\/\~~~~~~~~~~::/\/\/\/\[][][]/\. . . /\/\
WWWWWW~~~~~~~~~~~~~~~~~~~~/\/\/\/\/\/\~~~~~~~~~~~~~~~~~~~~~~~~~~::/\/\/\[][]MM[][]. DDDDDD/\
WWWWWW~~~~~~~~~~~~~~~~~~~~/\/\. . . /\/\~~~~~~~~~~~~~~~~~~~~~~~~::/\/\::::::::::[]. DD. DD/\
WWWWWW~~~~~~~~~~~~~~. . . . /\. . /\/\/\~~~~~~~~~~~~~~~~~~~~~~~~~~::/\up[][]::[][]. DDCCDD/\
WWWWWW~~~~~~~~~~/\. . . . /\/\. /\/\. . ~~~~~~~~~~~~~~~~~~~~~~~~~~~~::/\/\[]--[]. . []. []/\
WWWWWW~~~~~~/\. . . /\. {}/\. /\{}{}{}. . ~~~~~~~~~~~~~~~~~~~~~~~~~~::/\/\/\. . . . []. []/\
WWWWWW~~~~. . {}{}. {}{}/\/\. /\{}. {}{}. /\/\~~~~~~~~~~~~~~~~~~~~~~~~::/\/\/\. ~~. []--[]/\
WWWWWW~~~~/\{}. MM{}{}/\/\. . /\/\{}{}. {}{}/\/\~~~~~~~~~~~~~~~~~~~~~~::/\/\/\. . . . . /\/\
WWWWWW~~~~. . {}{}{}{}{}/\/\. . /\/\/\{}{}{}{}/\~~~~~~/\/\~~~~~~~~~~::/\/\/\/\. . /\/\/\/\/\
WWWWWW~~~~~~/\. {}{}/\{}{}/\. . . . /\/\{}. /\/\/\~~/\/\~~/\~~~~~~::/\/\/\/\. . [][]**[][]/\
WWWWWW~~~~~~. . /\{}{}{}{}/\/\. . . /\/\{}{}/\/\/\/\/\/\~~~~~~~~::::/\/\. . . . | . . . []/\
WWWWWW~~~~~~~~~~. . . . {}{}/\/\/\/\/\. . {}{}/\/\/\/\~~~~~~~~~~::/\/\/\. [][][][]. . . []/\
WWWWWW~~~~~~~~~~~~~~~~. . . . /\/\/\~~~~. . . /\/\/\/\~~~~~~~~::::/\/\. . | . . DD==CC==DD/\
WWWWWW~~~~~~~~~~~~~~~~~~~~~~~~~~~~~~~~~~~~~~. . /\/\~~~~~~~~~~::::_]| . . []MR. DD. . . DD/\
/\WW~~~~~~~~~~~~~~~~~~~~~~~~~~~~~~~~~~~~~~~~~~~~~~~~~~~~~~~~::::::/\/\. . DDDDDDDDDDDDDDDDDD
/\/\_]~~~~~~~~~~~~~~~~~~~~~~~~~~~~~~~~/\/\/\~~~~~~~~~~~~~~~~::/\/\/\/\o . . . . | . . . . DD
  /\/\. . . ~~~~~~~~~~~~~~/\~~~~~~/\/\/\  /\/\/\~~~~~~~~::::/\/\/\/\DDDDDD. DDDDDD. DDDD. DD/\/\/\/\/\/\/\
    /\/\/\/\. /\/\/\~~~~/\/\/\/\/\/\          /\/\/\~3::/\/\/\/\/\**. . | . | ()DD. LKDD. DD/\/\/\/\. . /\/\
          /\/\/\  /\/\/\/\                        /\/\/\/\      /\/\DDDDDD/\DDDDDDDDDDDDDDDD/\/\/\. . . . DDDDDDDDDDDDDDDDDDDDDDDD
                                                                                              /\. %%c2. . DD. . DD. . . . DD. dnDD
                                                                                              /\/\/\/\. . DD. . DD. . . . DDSDDDDD
                                                                                              /\. . . . . DD. . DD. . . . | . . DD
                                                                                            /\/\. /\/\. . DDDD--DDDD----DDDD. . DD
                                                                                            /\. . /\/\/\. | . . . . . . . | . . DD
                                                                                            /\. . ~~/\/\. DD--DD. DDDDDD. DDDDDDDD
                                                                                            /\/\. . /\. . DD. DD. | o DD. . . . DD
                                                                                            /\/\. . . . . DD. DD. DDDDDD. . . . DD
                                                                                              /\/\. . . . DD. DD. . upDD. . . . DD
                                                                                                /\/\. . . DDDDDDDDDDDDDDDDDDDDDDDD
                                                                                                /\/\/\/\/\/\
<z>70</z> <x>115</x> <y>74</y> <n>Rift Glacier - Elevation 70'</n>
    /\/\/\/\/\/\/\/\/\/\/\/\/\/\/\                      
  /\/\/\~.up/\/\/\/\/\/\/\~.~.~./\/\                    
/\/\/\~.. . . . . /\/\/\/\~.~.~.~./\                    
/\~.. . . {}{}. . ::::::~.~.~.~.~./\/\                  
/\~.. {}{}{}{}::::::~.~.~.~.~.~.~.~./\/\        /\/\/\  
/\/\~.{}{}{}::::~.~./\/\/\/\~.~.~.~.~./\    /\/\/\~./\  
/\/\~.. {}::::~./\/\/\/\/\/\/\/\~.~.~./\/\/\/\~.~.~./\/\
  /\/\. {}::~./\/\/\/\/\~./\/\/\/\~.~.~.::/\/\~.~.{}{}/\
    /\. ::::/\/\/\/\~.~.~./\/\/\~.~.~.~.~.::~.{}{}{}~./\
  /\/\~.::::/\. /\. . . ~./\/\~.~.c3/\/\~.::::{}{}~./\/\
  /\~.. ::/\. /\/\. . . /\/\/\~./\/\/\/\~.~.::{}{}{}/\  
  /\{}{}. /\. /\~.. . c3/\/\~.~./\/\/\/\~.~.::. {}{}/\  
/\/\{}{}. /\. /\~./\/\/\/\/\~./\/\/\/\/\/\~.::. ~./\/\  
/\~.{}{}{}/\. /\/\/\/\/\/\/\~./\/\/\/\/\/\~.::. ~./\    
/\. /\{}. /\. /\/\{}{}/\/\/\~.~./\/\/\/\/\::::. ~./\    
/\. /\{}. /\/\/\{}. {}{}/\~.~.~.~./\/\/\{}::. . /\/\    
/\. /\{}{}. /\{}{}{}{}. /\~.~.~.~.~./\/\~.~.. . /\      
/\. /\/\{}. /\. {}{}. /\/\/\~.~.~./\/\/\{}{}. /\/\      
/\. . /\{}. . . /\/\/\/\~.~.~./\/\/\/\{}{}{}. /\/\      
/\/\. /\/\. . /\/\/\/\/\~.~.~./\/\/\~.{}{}{}. . /\/\/\  
  /\. /\/\. . /\. /\/\~.~.~./\/\/\/\{}{}{}. . . . {}/\/\
  /\. /\{}{}{}/\. /\~./\~.~./\/\~./\~.{}{}. . . {}~.{}/\
  /\. . {}/\{}. . /\~.~.~.~.~./\~.~.{}{}. . . {}~.{}{}/\
  /\/\{}{}{}{}/\::~.~./\~./\~.::~.~.{}/\. . . {}{}{}/\/\
  /\/\{}/\{}/\/\~.~.~.~.~.~.~.::::/\/\/\{}{}. . {}{}/\/\
  /\/\~.{}. /\~.~.~./\~.~.~.~.::/\~./\/\{}{}{}. . . /\  
  /\~.. . . ::~./\~./\~./\~./\::/\/\/\{}{}{}. . . . /\  
  /\~.. . . ::~./\~.~.~./\/\/\/\/\/\{}{}{}. . . . /\/\  
  /\~.. . {}::~.~.~./\~./\/\/\/\/\. {}{}. . . . {}/\    
  /\/\~.{}{}::::~.~./\~.~.::. . . . ~.. . . . {}{}/\/\/\
    /\~.{}{}{}::::~.~.~./\/\/\. . . . . . . . {}~.{}{}/\
    /\/\. {}{}{}::::~.~./\/\/\{}. /\/\{}. . . {}{}/\~./\
      /\. . {}. . ::~.~.~.~./\. {}/\/\/\{}{}. /\. /\~./\
      /\. . . . . ~.~.~.~.c2::. /\/\/\/\/\~./\/\--/\/\/\
    /\/\. . . %%%%%%~.~.~.%%%%%%/\/\/\/\/\/\/\/\. /\/\  
%%%%%%%%%%%%%%%%%%%%%%%%%%%%%%%%%%%%%%%%%%%%/\. . **/\  
%%%%%%%%%%%%%%%%%%%%%%%%%%%%%%%%%%%%%%%%%%%%/\. . . /\  
%%%%%%%%%%%%%%%%%%%%%%%%%%%%%%%%%%%%%%%%%%%%/\/\/\/\/\  
<z>720</z> <x>72</x> <y>58</y> <n>Ice Bridge Level - Elevation 720'</n>
                                                                                        /\/\/\/\/\        
                                                                                  /\/\/\/\{}{}~./\/\/\    
            /\/\/\/\/\/\                                              /\/\/\/\/\/\/\{}{}. {}. {}~.. /\/\/\
          /\/\~.~.~.~./\                                            /\/\c3{}. . . . . . {}{}~.. {}{}~.. /\
%%%%%%%%/\/\~./\/\~./\/\                      /\/\/\/\/\/\/\    /\/\/\. %%%%%%%%%%%%. . . . {}{}/\. {}/\/\
        /\~./\/\/\/\/\                /\/\/\/\/\{}. . . . /\/\/\/\{}{}. %%%%%%%%. %%%%%%%%. . {}. {}. /\  
        /\/\~./\                /\/\/\/\{}~.{}{}. %%%%%%. . . . . . . %%%%%%. . . c2%%%%%%. . . . {}/\/\  
    %%%%/\/\~./\/\          /\/\/\~.{}{}~.. . . %%%%%%%%%%%%%%%%%%%%%%%%%%. c3/\/\/\/\%%%%%%%%%%%%/\/\    
    %%%%%%~./\~./\/\/\/\/\/\/\~.~.{}. . c2. %%%%%%%%%%%%%%%%%%/\%%%%%%%%%%. /\/\. /\%%%%%%%%%%%%%%%%%%    
    %%%%%%%%/\/\~.~.~.~./\/\{}{}{}. . %%%%%%%%%%%%%%%%%%%%%%%%%%%%/\%%%%%%%%/\/\/\%%%%%%%%%%%%%%%%%%%%    
    %%%%%%%%/\/\/\/\/\/\~.{}~.{}. . %%%%%%%%%%%%%%%%/\%%%%%%%%%%%%%%%%%%%%%%%%%%%%%%%%%%%%%%%%%%%%%%      
    %%%%%%%%%%%%%%c3{}{}~.~.. . . %%%%%%%%%%%%%%%%%%%%%%%%. . %%%%%%%%%%%%%%%%%%%%%%%%%%%%%%%%%%%%%%      
    %%%%%%%%%%%%%%%%%%. . . . %%%%%%%%. . . %%%%. . . %%. . . {}{}%%%%%%%%%%%%%%%%%%%%%%%%%%%%%%%%%%      
    %%%%%%%%. . %%%%%%%%%%%%. %%%%%%. . . . . . /\/\. . . {}{}{}{}~~~~%%%%%%%%%%%%%%%%%%%%. %%%%%%%%%%    
    %%%%%%. . {}. %%%%%%%%%%. %%. . . ~.{}{}/\{}. {}~.~.. {}{}. {}~~{}{}. . {}{}{}. . ~.{}. . /\/\        
    /\/\. . /\. {}. . %%%%%%. . {}~.~.. {}. {}. {}~.. . ~.~.{}{}~~{}{}. . {}{}{}. ~.~.. . {}/\. /\/\      
      /\/\/\{}{}. {}. . . . ~.{}{}{}. . ~.{}{}{}. {}. ~.{}{}~~~~{}{}. . ~.~.. . ~.~.~.{}{}{}/\/\. /\      
          /\/\/\/\. {}{}{}{}~.~.{}{}{}. ~.{}{}. {}{}. {}{}~~{}{}. . . ~.{}{}. . ~.{}{}{}{}. . %%. /\      
      /\/\/\. . /\/\/\{}{}{}/\/\/\/\/\c3. ~.{}{}{}. . {}. ~~{}{}. . . {}{}. {}. {}~.{}. . {}%%%%%%/\      
    /\/\. . /\/\. . /\/\. /\/\/\/\/\/\/\. . ~./\{}. ~.{}{}{}~~{}{}~.. . {}{}. {}. {}/\. %%%%%%%%%%%%      
    /\. . . . /\/\/\/\/\. /\. . . . /\/\/\/\. . . . . ~.{}{}. ~~. {}. {}. {}~.{}{}/\/\. %%%%%%%%%%%%      
  /\/\. . . . /\/\. /\/\. . . /\/\. . /\. /\/\. . . {}~.{}{}{}~~/\{}. {}{}{}{}~./\/\{}/\. %%%%            
  /\. . . . /\/\. . . . . /\/\/\. . . /\. . /\~.~.. . {}{}. ~~{}{}{}. . {}. {}{}/\/\. {}. %%%%%%          
  /\/\. /\. . . . . . . /\/\/\. . /\/\/\. . /\/\{}~.. {}/\~~~~. {}. . . {}{}~.~.{}/\/\/\. . %%%%          
    /\/\/\/\/\. /\. . /\/\. /\. . . . . /\/\/\/\/\{}. . ~~~~~~/\/\/\. . ~.~.~.{}{}{}. /\/\. %%%%          
  /\/\/\. . /\. /\/\/\/\. /\/\. /\. . . . . /\. /\/\/\/\{}~~{}/\. /\/\~.~.~.{}{}. {}{}{}. . %%%%          
/\/\. . . . . . . /\/\. /\/\. . . /\. . /\. . /\. . . /\/\/\/\/\. . /\~.~.~.{}. {}{}{}{}. %%%%%%          
/\. . . . . /\/\. . . /\/\. . /\. . . /\/\. . . /\/\/\/\/\/\/\. . /\/\/\~.. . {}. {}{}. . %%%%%%          
/\. . . . /\/\/\/\/\. /\/\. /\/\/\/\/\/\/\. . . . . . . /\/\. /\/\/\. . {}{}. . {}{}. . . %%%%%%          
/\/\. . . /\/\. /\/\. . . . /\/\/\. /\/\/\/\. . . /\/\. /\/\. . . /\. /\{}. {}. . . {}. %%%%%%            
/\/\/\. /\/\/\. . /\/\. . . . /\. . . /\/\/\. . . . /\. /\. . /\. . . /\/\{}{}~.{}. . . /\%%%%            
/\. . . . /\. . . /\/\. . /\/\/\. . . . . . . . . /\/\. . . . . /\. /\/\/\~.{}{}~.~.. . /\%%%%            
/\. /\/\/\/\. . . . /\/\/\/\/\. . . . /\. /\/\. /\/\/\/\. . . . . . /\  /\{}{}{}{}~.. /\%%%%              
/\. . /\. . . . . /\/\/\/\/\/\. /\. /\/\. . /\/\/\/\. /\/\. . /\/\/\/\  /\/\{}. {}{}. /\%%%%              
/\/\. /\. /\/\. . /\. . . /\/\. /\/\/\/\/\. . . . /\/\/\/\/\. . . /\      /\~.{}. {}. /\%%%%              
  /\. . . /\/\/\. /\. /\. . /\. /\  /\. /\/\/\/\. . . . . . . /\/\/\      /\/\{}{}/\/\/\%%                
  /\/\/\/\/\  /\. . . /\/\. . . /\            /\/\/\/\/\/\/\/\/\  /\        /\/\/\/\                      
              /\/\/\/\/\/\/\/\/\/\                                                                        
<z>1390</z> <x>75</x> <y>58</y> <n>Makon Quest: Flute / Budda Teleport</n>
  /\/\/\/\/\/\/\              
  /\~.~./\~.~./\/\/\/\/\/\/\  
/\/\~.. . . /\/\/\~.~.~.~./\/\
/\~.~.. ::. /\~.~.~./\~./\[_/\
/\~.~.. . . ~.~./\/\/\/\. /\/\
/\/\MM~.~.~./\/\/\/\/\. /\/\  
  /\/\~.~./\/\/\/\/\~./\/\    
    /\/\/\/\/\/\[_~./\/\      
%%/\/\/\/\/\/\[_. /\/\        
%%%%~./\/\/\[_. /\/\%%        
%%%%~.~.~.~.c2~.~.%%%%        
%%%%%%%%%%%%%%%%%%%%%%        
%%%%%%%%%%%%%%%%%%%%%%        
<z>12</z> <x>153</x> <y>138</y> <n>Haunted House Upstairs - Elevation 12'</n>
DDDDDDDDDDDDDDDDDDDDDDDD
DD. . . . . | . DD. . DD
DD. . . . . DD. | . . DD
DD. . . DDDDDD. DDDDDDDD
DD. . . | . DD. DD. . DD
DD. . . DDo DD. | . . DD
DDSDDDDDDDDDDD. DD. . DD
DD. DD. DDo | . DDDDDDDD
DDDDDD. DDDDDD. | . . DD
DD. DD. . dn. . DD. . DD
DDDDDDDDDDDDDDDDDDDDDDDD
<z>150</z> <x>70</x> <y>61</y> <n>Gorge Bottom - Elevation 150'</n>
                                                                          /\/\/\/\/\/\/\/\                                  
                                                      /\/\/\/\/\          /\~.~.~.{}{}{}/\/\/\/\                            
    /\/\/\/\/\                                      /\/\~.~.~./\/\      /\/\~.{}{}{}/\{}{}{}{}/\                            
  /\/\~.~.~./\/\                                  /\/\~.~.~.~.~./\/\/\/\/\~.{}~./\/\/\/\c3~.::/\/\/\/\/\                    
/\/\~.~.~.~.~./\/\                            /\/\/\~.~.~.~.~.~.~.~.::::::::. /\/\/\/\/\/\::::~.~.~.~./\/\/\/\/\            
/\~.~.~.~.~.~.~./\/\/\                  /\/\/\/\. ~.~.~.~.~.~.~.~./\~.~.~.::::/\/\/\/\/\~.~.~.~.~.~.~.~.::::::/\/\/\        
/\~.~./\~.~.~.~./\{}/\/\              /\/\{}c3~.~.~.~.~.::::::~.~.~.. /\~.~.~.~./\/\/\~.~.~.~.~.~.~.~.~.~.~.::::::/\/\      
/\~.~.~.~.~.~.~.~./\~./\            /\/\{}. ~.~.~.~.. . /\. ::::~.~.~.~.. ~.~.~.~.~.~.~.~.~.~.~.~.~.~.~.~.~.~.~.::::/\/\    
/\~.~.~.~.~.~.~.~.~.~./\/\/\    /\/\/\::::~.~.~.~.. . {}~.{}{}::::::~.~.~.~.~.. /\~.~.~.~.~.~.~.~.~.~.~.~.~./\~.~.~./\/\/\  
/\/\~.~.~.~.~.~.~.~.~.~.~./\/\/\/\::::~.~./\. ~.~.. {}~.{}{}/\{}/\::::::::~.~.~.~.~.~.~.~.~.~.::::::::::~.~.~.::/\~.~.~./\/\
  /\/\~.~.~.~.~./\/\~.~.~.~.~.~.::~.~.~./\~.~.~.. {}/\/\{}/\/\/\/\/\/\/\/\::::::::~.~.~.~.~.~./\. . . ::::~.~.~.~.. ~.~.~./\
    /\/\~.~.~./\/\/\/\~.~.~.~.~.~.~./\~./\~.~.. {}/\/\/\/\/\/\          /\/\/\/\/\/\/\/\/\/\/\/\/\~./\/\::::::/\~.~.. ~.~./\
      /\/\/\/\/\    /\/\/\~.~.~.~.~.~.~.~.~./\/\/\/\                                            /\~./\/\/\/\/\/\~.~./\~./\/\
                        /\/\/\/\~.~.~.~.~./\/\                                            /\/\/\/\dn/\/\/\/\/\/\/\~.~.~./\/\
                              /\/\/\/\/\/\/\                                                %%/\%%%%/\%%%%%%%%%%/\%%%%%%/\/\
                                                                                              %%%%%%%%%%%%%%%%%%%%%%%%%%%%%%
                                                                                            %%%%%%%%%%%%%%%%%%%%%%%%%%%%%%  
<z>1000</z> <x>107</x> <y>63</y> <n>Griffin's Nest - Elevation 1000'</n>
  %%%%%%%%%%%%%%%%%%
  %%%%%%%%%%%%%%%%%%
%%%%%%%%/\. /\/\%%%%
%%%%%%/\c2. /\%%%%%%
      /\/\/\up%%%%%%
      %%%%%%%%%%%%%%
      %%%%%%%%%%%%%%
      %%%%%%%%%%%%%%
<z>-30</z> <x>137</x> <y>136</y> <n>Well Bottom - Elevation -30'</n>
  /\/\/\        /\/\/\/\/\  
  /\pb/\/\    /\/\. . . /\  
DDDDSDDDDD    /\. . /\. /\/\
DD. . . DD/\/\/\. /\/\. cu/\
DD. MM. []. . /\. /\/\/\/\/\
DDDDDDDDDD/\. . . /\        
    /\/\/\/\/\/\/\/\        
<z>3160</z> <x>110</x> <y>61</y> <n>Level 3160' - Yasashii.Kaza</n>
  /\/\/\/\/\/\/\/\/\/\
%%%%%%%%::::::| ::::/\
%%%%%%::%%%%%%##::::/\
%%%%::%%%%%%%%/\/\/\/\
  /\/\{}%%%%%%%%      
  /\/\up%%%%%%%%      
  /\/\dn%%%%%%%%      
%%%%%%%%%%%%%%%%      
%%%%%%%%%%%%%%%%      
%%%%%%%%%%%%%%        
<z>1420</z> <x>93</x> <y>44</y> <n>Crypt Level - Elevation 1420'</n>
                /\/\/\/\/\/\/\/\/\/\        /\/\/\/\/\        
          /\/\/\/\/\~.. . . . ~.~./\/\/\  /\/\/\{}{}/\/\/\    
          /\/\. . ~.~.. . . . . ~.~.~./\/\/\/\{}{}{}{}{}/\/\  
        /\/\/\. ~.~.. /\. . . . . . ~.~./\/\/\{}~.~.~.{}{}/\  
    /\/\/\/\~.. ~.. . /\/\/\/\. . . . . . . {}{}~.~.~.~.{}/\/\
  /\/\~.~.~.. . . . . . /\/\/\/\. . . . . . {}. . . . ~.{}{}/\
/\/\~.. . . . ~.. . {}. . /\. /\~./\. . ::::::::::::. . . {}/\
/\~.. . ~.~.~.{}{}{}{}. /\/\. . /\/\. . ::DDDDDDDD::. . {}{}/\
/\~.. . ~.. {}{}{}{}. . /\/\. /\/\. . . ::DD::. DD::. . {}/\/\
/\~.~.. . . {}{}{}. . . . /\/\/\. . . . ::DDDDHDDD::. . {}/\  
/\/\~.. . . {}{}{}. . ~.. . . . . . . . ::DDDD::DD::. {}{}/\  
  /\~.. . {}{}{}{}{}. . . . . {}{}{}. . ::::::::::::{}{}/\/\  
  /\~.. . . {}{}{}. . . . /\. . {}{}{}. . . . . {}{}{}/\/\    
  /\/\. . . . . . . /\/\/\/\. . . {}{}{}. . . {}{}{}/\/\      
    /\/\. . . . . /\/\/\/\. . . . {}{}{}. . . {}{}{}{}/\      
      /\. . . /\. /\/\/\/\. . . {}{}{}{}{}. {}{}%%%%%%/\      
    /\/\. . . /\/\/\  /\/\. . c2. {}{}{}{}%%%%%%%%%%%%%%      
    /\. . . . /\        /\. . %%%%%%%%%%%%%%%%%%%%%%%%        
    /\/\. . . /\/\    /\/\. %%%%%%%%%%%%%%%%%%                
    /\/\. . . /\%%    %%%%%%%%%%%%%%%%%%%%                    
    %%/\%%%%%%/\%%    %%%%%%%%%%%%%%%%%%
    %%%%%%%%%%%%%%                      
<z>-50</z> <x>150</x> <y>138</y> <n>Haunted Basement - Elevation -50'</n>
    DDDDDDDDDDDDDDDDDDDDDDDDDD
    DD. . DDDD. . . DD. . upDD
    DD. . DDDD. . . DDDD. DDDD
/\/\DDDDHDDDDD. . . DD. . . DD
/\**DD. . DDDDDD--DDDDDD--DDDD
/\%%MM. . DD. . . . . . . . DD
/\**DD. . DDDDDD--DDDDDDHDDDDD
/\/\DDDDHDDDDD. . . DD. . . DD
    DD. . DDDD. . . DDDD. DDDD
    DD. . DDDD. . . DD. . . DD
    DDDDDDDDDDDDDDDDDDDDDDDDDD
<z>100</z> <x>120</x> <y>78</y> <n>Upper Plateau - Elevation 100'</n>
      %%%%%%%%%%%%%%%%. 
    %%%%%%%%%%%%%%%%%%%%
  %%%%%%%%%%. . %%%%%%%%
%%%%%%%%. . . . . . %%%%
%%%%%%. . /\%%%%/\c2%%%%
%%%%. . /\/\%%/\/\/\%%%%
%%%%. . /\        /\%%%%
%%. . /\/\              
%%. . /\/\              
%%. . %%%%              
%%%%%%%%%%              
<z>80</z> <x>118</x> <y>77</y> <n>Plateau - Elevation 80'</n>
            %%%%%%%%%%%%%%              
        %%%%%%%%%%%%%%%%%%%%            
      %%%%%%%%. . . . %%%%%%%%          
  %%%%%%%%. . . /\/\. . . %%%%%%%%      
  %%%%%%. . /\/\/\/\/\/\. . %%%%%%%%    
  %%%%. . /\/\%%%%%%%%/\c3%%%%%%%%%%%%  
%%%%%%. /\/\%%%%%%%%%%/\%%%%%%c2. %%%%  
%%%%. . /\%%%%/\/\/\/\/\%%/\/\/\. %%%%%%
%%%%. /\/\%%%%/\%%c2. %%%%/\/\/\. %%%%%%
%%%%. /\/\/\/\/\/\/\/\%%/\/\/\/\/\. %%%%
%%%%. /\/\. . . /\%%/\%%/\/\/\/\/\. %%%%
%%%%. . . . %%. /\/\/\%%%%/\/\/\. . %%%%
%%%%. . . %%%%%%. . %%%%%%%%/\/\. %%%%%%
%%%%%%. %%%%%%%%%%. %%%%%%%%%%. . %%%%%%
  %%%%. %%%%%%%%. . . %%%%%%. . . %%%%%%
  %%%%%%%%. . . . %%. %%. . . . %%%%%%%%
  /\%%%%. . . . . %%%%. . . . %%%%%%%%  
  /\%%%%. %%. . %%. %%. . . . %%%%%%%%  
  %%%%%%. %%. . . . . . . %%. %%%%%%%%  
  %%/\%%%%%%. . . . . %%. %%%%%%%%%%%%  
      %%/\%%%%%%. %%. %%%%%%%%%%%%      
        /\%%%%%%%%%%%%%%%%%%%%/\        
                %%%%%%%%%%              
<z>1400</z> <x>72</x> <y>73</y> <n>Hoarde Level - Elevation 1400'</n>
          %%%%%%%%%%%%%%%%%%%%%%%%%%%%%%%%
          /\%%%%%%%%%%%%%%%%%%%%%%%%%%%%%%
  /\/\/\/\/\~.~.~.%%%%%%%%%%%%%%%%%%%%%%%%
/\/\~.~./\/\/\/\~.~.~.%%%%%%~.~.~.~.c2%%%%
/\~.~.~./\/\/\/\/\/\~.~.~.~.~./\/\/\/\/\/\
/\~.. . . ~./\/\/\/\/\/\~./\/\/\
/\~.. . . ~.~.~./\/\~.~.~./\
/\/\. . . /\/\~.~.~.~./\/\/\
  /\/\/\/\/\/\/\/\/\/\/\
<z>6020</z> <x>103</x> <y>63</y> <n>Cloud Dragon's Lair 6020'</n> norecall=true
                %%%%%%%%%%%%. 
%%%%%%%%%%DDDDDDDD%%%%%%%%%%%%
%%%%%%%%%%DD::::| ::%%%%%%%%%%
%%%%%%%%%%DD::::| ::dn%%%%%%%%
%%%%%%%%DDDD----DDDDDD%%%%%%%%
%%%%%%%%DD. ~.~.~.. DD%%%%%%%%
%%%%%%DDDD. ~.~.~.. _]DD%%%%%%
%%%%%%DD. . . ~.~.~.~._]%%%%%%
%%%%%%DDDDDDDDMMDDDDDDDD%%%%%%
%%%%%%%%%%%%%%%%%%%%%%%%%%%%%%
%%%%%%%%%%%%%%%%%%%%%%%%%%%%%%
<z>1500</z> <x>95</x> <y>26</y> <n>The gauntlet - Elevation 1500'</n> norecall=true
    /\/\/\      
/\/\/\::/\/\/\  
/\. . . . . /\  
/\/\/\. /\/\/\  
/\/\/\. /\/\/\  
/\. . . . . /\  
/\/\/\. /\/\/\  
/\/\/\. /\/\/\  
/\. . . . . /\  
/\/\/\. /\/\/\  
/\/\/\. /\/\/\  
/\. . . . . /\  
/\/\/\. /\/\/\  
    /\/\. /\    
    /\. /\/\    
  /\/\. /\      
  /\. . /\      
  /\/\. /\      
    /\. /\      
    /\. /\      
    /\. /\/\/\  
    /\. . %%/\/\
  /\/\. . %%%%%%
  /\%%%%%%%%%%%%
  %%%%%%%%%%%%%%
  %%%%%%%%%%%%%%
<z>15</z> <x>134</x> <y>115</y> <n>Rift town Upstairs - Elevation 15'</n>
                DDDDDD      
    DDDDDDDDDD  DD. DD      
    DD. . . DD/\DDCCDD      
    DD. (). | . | . DD      
    DD. . . DDdnDDDDDD/\    
    DDDDDDDDDD. %%%%. /\    
    /\DDMMDD/\%%. . . /\    
/\/\DD. . . DD%%. . . /\    
/\dn. . . . . %%. . . /\/\  
/\/\DD. . . DD%%. . . . /\  
    /\DD. DD%%%%. . . /\/\  
      /\/\%%%%%%. . . . /\  
      /\/\%%%%%%%%%%. /\/\  
        /\%%%%. . . . /\    
      /\/\%%. . . . . /\    
      /\. . . . . /\/\/\    
    DDDD--DDDD. /\/\        
    DD. . . DD. . /\/\/\/\/\
    DD. . . DD. . . . . . /\
    DD. . . DD. DDDDDDDD. /\
    DD. . . DD. DD. MMDD. /\
    DD. . . DD. | . . DD. /\
    /\/\/\/\/\/\/\/\/\/\. /\
          /\. . . . | . . /\
          /\. . . /\/\/\/\/\
          /\/\CC/\/\        
          /\. . . /\        
          /\/\/\/\/\        
<z>940</z> <x>120</x> <y>113</y> <n>Top of Stone Column - Elevation 940'</n>
    %%%%%%%%%%%%%%%%    
%%%%%%%%%%%%%%%%%%%%%%  
%%%%%%%%%%/\~.~.%%%%%%%%
%%%%%%/\. . . ~.~.%%%%%%
%%%%~.c2. MM. ~.~./\%%%%
%%%%~.~.. . . . . /\%%%%
%%%%%%~.~./\. . . %%%%%%
  %%%%%%~.~.~.. %%%%%%%%
    %%%%%%%%%%%%%%%%%%%%
      %%%%%%%%%%%%%%%%  
<z>950</z> <x>121</x> <y>135</y> <n>Thor Level - Eleavation 950'</n>
        %%%%%%%%/\
        %%%%%%%%  
        /\%%%%/\  
        /\c2. /\  
        /\/\. /\  
          /\/\/\/\
      /\/\/\. . /\
      /\. . . . /\
      /\. . . /\/\
      /\/\. . /\  
      /\/\. /\/\  
/\/\/\/\. . . /\  
    /\. . . . /\/\
    /\. . MM. . /\
    /\/\. . . . /\
      /\/\. . /\/\
        /\/\/\/\  
